[
  {
    "symbolicName": "jre",
    "version": {
      "major": 1,
      "minor": 0,
      "micro": 0,
      "qualifier": ""
    },
    "jarFileFingerprint": "b65f92b99a574467fb0685e094edbbd24411ea41",
    "jarFileModificationDate": "2013-09-13T10:25:42.621-06:00",
    "location": "C:\\Program Files\\Java\\jdk1.6.0_45\\jre\\lib\\charsets.jar",
    "javaRuntime": true
  },
  {
    "symbolicName": "jre",
    "version": {
      "major": 1,
      "minor": 0,
      "micro": 0,
      "qualifier": ""
    },
    "jarFileFingerprint": "c7fea395d8246fe6ac3f43e6283e9e8022006797",
    "jarFileModificationDate": "2013-07-31T20:56:20.722-06:00",
    "location": "C:\\Program Files\\Java\\jre7\\lib\\jsse.jar",
    "javaRuntime": true
  },
  {
    "symbolicName": "jre",
    "version": {
      "major": 1,
      "minor": 0,
      "micro": 0,
      "qualifier": ""
    },
    "jarFileFingerprint": "8303669499f816eb1536f08f7b99d21924fb85b8",
    "jarFileModificationDate": "2013-07-31T20:56:15.596-06:00",
    "location": "C:\\Program Files\\Java\\jre7\\lib\\ext\\zipfs.jar",
    "javaRuntime": true
  },
  {
    "symbolicName": "jre",
    "version": {
      "major": 1,
      "minor": 0,
      "micro": 0,
      "qualifier": ""
    },
    "jarFileFingerprint": "f4e50ce26184730f4e371fad52ec03bca3e52859",
    "jarFileModificationDate": "2013-07-31T20:56:15.456-06:00",
    "location": "C:\\Program Files\\Java\\jre7\\lib\\ext\\access-bridge-64.jar",
    "javaRuntime": true
  },
  {
    "symbolicName": "jre",
    "version": {
      "major": 1,
      "minor": 0,
      "micro": 0,
      "qualifier": ""
    },
    "jarFileFingerprint": "9563168a94adcd6bf73674b0adfa3f8b36ebc57f",
    "jarFileModificationDate": "2013-09-13T10:25:43.986-06:00",
    "location": "C:\\Program Files\\Java\\jdk1.6.0_45\\jre\\lib\\jsse.jar",
    "javaRuntime": true
  },
  {
    "symbolicName": "jre",
    "version": {
      "major": 1,
      "minor": 0,
      "micro": 0,
      "qualifier": ""
    },
    "jarFileFingerprint": "911621bc30f4b29fec35eb583121a018189510f1",
    "jarFileModificationDate": "2013-07-31T20:56:20.800-06:00",
    "location": "C:\\Program Files\\Java\\jre7\\lib\\ext\\localedata.jar",
    "javaRuntime": true
  },
  {
    "symbolicName": "jre",
    "version": {
      "major": 1,
      "minor": 0,
      "micro": 0,
      "qualifier": ""
    },
    "jarFileFingerprint": "0a4d4f4cad115256868f9de4e475ad4754f6e6c4",
    "jarFileModificationDate": "2013-07-31T20:56:15.471-06:00",
    "location": "C:\\Program Files\\Java\\jre7\\lib\\ext\\dnsns.jar",
    "javaRuntime": true
  },
  {
    "symbolicName": "java-cup-0.11a-beta-20060608-runtime",
    "version": {
      "major": -1,
      "minor": -1,
      "micro": -1,
      "qualifier": ""
    },
    "jarFileFingerprint": "1b4df5a8009e47941b2f05205fdbd1b2f42e871c",
    "jarFileModificationDate": "2013-08-19T22:48:53.124-06:00",
    "location": "C:\\Program Files\\eclipse-java-kepler-R-win32-x86_64\\configuration\\org.eclipse.osgi\\bundles\\414\\1\\.cp\\lib\\java-cup-0.11a-beta-20060608-runtime.jar",
    "javaRuntime": false
  },
  {
    "symbolicName": "jre",
    "version": {
      "major": 1,
      "minor": 0,
      "micro": 0,
      "qualifier": ""
    },
    "jarFileFingerprint": "c4c7923b11e98bc8d1d32bfd2ff6363d212ead80",
    "jarFileModificationDate": "2013-07-31T20:56:15.581-06:00",
    "location": "C:\\Program Files\\Java\\jre7\\lib\\ext\\sunec.jar",
    "javaRuntime": true
  },
  {
    "symbolicName": "jre",
    "version": {
      "major": 1,
      "minor": 0,
      "micro": 0,
      "qualifier": ""
    },
    "jarFileFingerprint": "f831655c50b92c41e366442d09511ea84270c45e",
    "jarFileModificationDate": "2013-07-31T20:56:16.128-06:00",
    "location": "C:\\Program Files\\Java\\jre7\\lib\\jce.jar",
    "javaRuntime": true
  },
  {
    "symbolicName": "jre",
    "version": {
      "major": 1,
      "minor": 0,
      "micro": 0,
      "qualifier": ""
    },
    "jarFileFingerprint": "c40b948a8103c939a0da54723630db9d4633c350",
    "jarFileModificationDate": "2013-09-13T10:25:19.958-06:00",
    "location": "C:\\Program Files\\Java\\jdk1.6.0_45\\jre\\lib\\ext\\sunjce_provider.jar",
    "javaRuntime": true
  },
  {
    "symbolicName": "jre",
    "version": {
      "major": 1,
      "minor": 0,
      "micro": 0,
      "qualifier": ""
    },
    "jarFileFingerprint": "bc3b2d68e2ea959b23888e907993644e3f8c1ea1",
    "jarFileModificationDate": "2013-07-31T20:56:20.409-06:00",
    "location": "C:\\Program Files\\Java\\jre7\\lib\\charsets.jar",
    "javaRuntime": true
  },
  {
    "symbolicName": "jre",
    "version": {
      "major": 1,
      "minor": 0,
      "micro": 0,
      "qualifier": ""
    },
    "jarFileFingerprint": "a3d1a9689f1c8e36ab64fb669df92076771c42f2",
    "jarFileModificationDate": "2013-07-31T20:56:15.596-06:00",
    "location": "C:\\Program Files\\Java\\jre7\\lib\\ext\\sunmscapi.jar",
    "javaRuntime": true
  },
  {
    "symbolicName": "jre",
    "version": {
      "major": 1,
      "minor": 0,
      "micro": 0,
      "qualifier": ""
    },
    "jarFileFingerprint": "bad5efeb8864023266a8a3a84da1ede49505006e",
    "jarFileModificationDate": "2013-09-13T10:25:20.110-06:00",
    "location": "C:\\Program Files\\Java\\jdk1.6.0_45\\jre\\lib\\resources.jar",
    "javaRuntime": true
  },
  {
    "symbolicName": "jre",
    "version": {
      "major": 1,
      "minor": 0,
      "micro": 0,
      "qualifier": ""
    },
    "jarFileFingerprint": "9bcb75a83b79e616c348c7affc1115329d272fcc",
    "jarFileModificationDate": "2013-09-13T10:25:19.950-06:00",
    "location": "C:\\Program Files\\Java\\jdk1.6.0_45\\jre\\lib\\ext\\dnsns.jar",
    "javaRuntime": true
  },
  {
    "symbolicName": "jre",
    "version": {
      "major": 1,
      "minor": 0,
      "micro": 0,
      "qualifier": ""
    },
    "jarFileFingerprint": "0046b4afa97bf972a1148ecd4ea3426df5a585f6",
    "jarFileModificationDate": "2013-09-13T10:25:19.960-06:00",
    "location": "C:\\Program Files\\Java\\jdk1.6.0_45\\jre\\lib\\ext\\sunmscapi.jar",
    "javaRuntime": true
  },
  {
    "symbolicName": "jre",
    "version": {
      "major": 1,
      "minor": 0,
      "micro": 0,
      "qualifier": ""
    },
    "jarFileFingerprint": "279439a9e994b7ce3832ebc12e6219c656167d54",
    "jarFileModificationDate": "2013-09-13T10:25:47.632-06:00",
    "location": "C:\\Program Files\\Java\\jdk1.6.0_45\\jre\\lib\\rt.jar",
    "javaRuntime": true
  },
  {
    "symbolicName": "jre",
    "version": {
      "major": 1,
      "minor": 0,
      "micro": 0,
      "qualifier": ""
    },
    "jarFileFingerprint": "77df74be5591c718de35ca1768786d3901103afe",
    "jarFileModificationDate": "2013-07-31T20:56:15.471-06:00",
    "location": "C:\\Program Files\\Java\\jre7\\lib\\ext\\jaccess.jar",
    "javaRuntime": true
  },
  {
    "symbolicName": "jre",
    "version": {
      "major": 1,
      "minor": 0,
      "micro": 0,
      "qualifier": ""
    },
    "jarFileFingerprint": "8548061f982dcc8843b280dfd86d3fffff57bb59",
    "jarFileModificationDate": "2013-07-31T20:56:16.128-06:00",
    "location": "C:\\Program Files\\Java\\jre7\\lib\\jfr.jar",
    "javaRuntime": true
  },
  {
    "symbolicName": "jre",
    "version": {
      "major": 1,
      "minor": 0,
      "micro": 0,
      "qualifier": ""
    },
    "jarFileFingerprint": "cbb58ca9ff2758edb4f29b8570cfc9fe7aa3a150",
    "jarFileModificationDate": "2013-07-31T20:56:20.253-06:00",
    "location": "C:\\Program Files\\Java\\jre7\\lib\\rt.jar",
    "javaRuntime": true
  },
  {
    "symbolicName": "jre",
    "version": {
      "major": 1,
      "minor": 0,
      "micro": 0,
      "qualifier": ""
    },
    "jarFileFingerprint": "bacccb018b46271cd93f83e38c277158a39f591e",
    "jarFileModificationDate": "2013-07-31T20:56:16.706-06:00",
    "location": "C:\\Program Files\\Java\\jre7\\lib\\resources.jar",
    "javaRuntime": true
  },
  {
    "symbolicName": "jre",
    "version": {
      "major": 1,
      "minor": 0,
      "micro": 0,
      "qualifier": ""
    },
    "jarFileFingerprint": "70e3f9e76e3d5884415516c0cee0855295bcb571",
    "jarFileModificationDate": "2013-09-13T10:25:20.013-06:00",
    "location": "C:\\Program Files\\Java\\jdk1.6.0_45\\jre\\lib\\jce.jar",
    "javaRuntime": true
  },
  {
    "symbolicName": "jre",
    "version": {
      "major": 1,
      "minor": 0,
      "micro": 0,
      "qualifier": ""
    },
    "jarFileFingerprint": "5da320e46f1c616986563b2e788b5a0569cad088",
    "jarFileModificationDate": "2013-07-31T20:56:15.581-06:00",
    "location": "C:\\Program Files\\Java\\jre7\\lib\\ext\\sunjce_provider.jar",
    "javaRuntime": true
  },
  {
    "symbolicName": "org.apache.commons.lang3",
    "version": {
      "major": 3,
      "minor": 1,
      "micro": 0,
      "qualifier": ""
    },
    "jarFileFingerprint": "905075e6c80f206bbe6cf1e809d2caa69f420c76",
    "jarFileModificationDate": "2013-09-17T12:01:35.565-06:00",
    "location": "C:\\Users\\julia_000\\Documents\\eclipse_se_workspace\\Compi2Proy1ServidorGenerador\\libraries\\commons-lang3-3.1\\commons-lang3-3.1.jar",
    "javaRuntime": false
  },
  {
    "symbolicName": "jre",
    "version": {
      "major": 1,
      "minor": 0,
      "micro": 0,
      "qualifier": ""
    },
    "jarFileFingerprint": "f8da7286762c943589cc4bad399fdc11b88012ab",
    "jarFileModificationDate": "2013-09-13T10:25:49.779-06:00",
    "location": "C:\\Program Files\\Java\\jdk1.6.0_45\\jre\\lib\\ext\\localedata.jar",
    "javaRuntime": true
  }
]